<?xml version="1.0" encoding="utf-8"?>
<!-- Generator: Adobe Illustrator 19.0.0, SVG Export Plug-In . SVG Version: 6.00 Build 0)  -->
<svg version="1.1" id="Layer_1" xmlns="http://www.w3.org/2000/svg" xmlns:xlink="http://www.w3.org/1999/xlink" x="0px" y="0px"
	 viewBox="0 0 64 64" style="enable-background:new 0 0 64 64;" xml:space="preserve">
<style type="text/css">
	.st0{fill:#FFFFFF;}
</style>
<g id="XMLID_15_">
	<g id="XMLID_16_" transform="translate(-285.000000, -189.000000)">
		<g id="XMLID_17_" transform="translate(288.000000, 189.000000)">
			<path id="XMLID_30_" class="st0" d="M40.4,25.7c0-6.1-5-11.1-11.1-11.1s-11.1,5-11.1,11.1s5,11.1,11.1,11.1S40.4,31.8,40.4,25.7z
				 M20.1,25.7c0-5,4.1-9.1,9.1-9.1s9.1,4.1,9.1,9.1s-4.1,9.1-9.1,9.1S20.1,30.7,20.1,25.7z"/>
			<path id="XMLID_27_" class="st0" d="M26.3,39.6c0.1-0.1-0.4,0.2-0.5,0.3c-0.5,0.3-0.8,0.3-1.3,0.2c-0.6-0.2-0.7-0.4-1-1.1
				c-0.3-0.8-0.4-0.9-0.6-1.3c-0.3-0.5-0.8-1-1.3-1.4c-1-0.7-1.7-0.9-3.1-1c-0.9-0.1-1.2-0.2-1.5-0.6c-0.3-0.4-0.3-0.6-0.3-1
				c0-0.2,0-0.3,0.2-0.8c0.3-1.2,0.3-2,0-3.1c-0.3-1-0.8-1.6-1.5-2.3c-0.1-0.1-0.6-0.5-0.5-0.5c-0.5-0.5-0.7-0.7-0.7-1.3
				c0-0.6,0.1-0.8,0.7-1.3c0,0,0.4-0.3,0.5-0.5c0.7-0.7,1.2-1.3,1.5-2.3c0.4-1.1,0.3-1.9,0-3.1c-0.1-0.5-0.1-0.6-0.2-0.8
				c0-0.4,0-0.6,0.3-1c0.4-0.5,0.6-0.6,1.5-0.6c1.4-0.1,2.1-0.3,3.1-1c0.6-0.4,1-0.9,1.3-1.4c0.2-0.4,0.3-0.5,0.6-1.3
				c0.3-0.8,0.5-1,1-1.1c0.5-0.2,0.8-0.1,1.3,0.2c0.1,0.1,0.6,0.4,0.5,0.3c1,0.6,1.8,0.9,2.9,0.9c1.1,0,1.9-0.3,2.9-0.9
				c-0.1,0.1,0.4-0.2,0.5-0.3c0.5-0.3,0.8-0.3,1.3-0.2c0.6,0.2,0.7,0.4,1,1.1c0.3,0.8,0.4,0.9,0.6,1.3c0.3,0.5,0.8,1,1.3,1.4
				c1,0.7,1.7,0.9,3.1,1c0.9,0.1,1.2,0.2,1.5,0.6c0.3,0.4,0.3,0.6,0.3,1c0,0.2,0,0.3-0.2,0.8c-0.3,1.2-0.3,2,0,3.1
				c0.3,1,0.8,1.6,1.5,2.3c0.1,0.1,0.6,0.5,0.5,0.5c0.5,0.5,0.7,0.7,0.7,1.3c0,0.6-0.1,0.8-0.7,1.3c0,0-0.4,0.3-0.5,0.5
				c-0.7,0.7-1.2,1.3-1.5,2.3c-0.4,1.1-0.3,1.9,0,3.1c0.1,0.5,0.1,0.6,0.2,0.8c0,0.4,0,0.6-0.3,1c-0.4,0.5-0.6,0.6-1.5,0.6
				c-1.4,0.1-2.1,0.3-3.1,1c-0.6,0.4-1,0.9-1.3,1.4c-0.2,0.4-0.3,0.5-0.6,1.3c-0.3,0.8-0.5,1-1,1.1c-0.5,0.2-0.8,0.1-1.3-0.2
				c-0.1-0.1-0.6-0.4-0.5-0.3c-1-0.6-1.8-0.9-2.9-0.9C28.1,38.7,27.3,39,26.3,39.6z M31.1,41.4c-0.1-0.1,0.4,0.3,0.6,0.3
				c1,0.6,1.8,0.7,2.9,0.3c1.2-0.4,1.8-1,2.3-2.3c0.3-0.6,0.3-0.8,0.5-1c0.2-0.3,0.4-0.6,0.8-0.9c0.6-0.4,1-0.5,2.1-0.6
				c1.5-0.1,2.2-0.4,3-1.5c0.6-0.8,0.7-1.5,0.7-2.4c0-0.3-0.1-0.4-0.2-1c-0.2-0.9-0.2-1.4,0-2.1c0.2-0.6,0.5-1,1-1.4
				c0.1-0.1,0.5-0.4,0.5-0.4c0.9-0.8,1.4-1.6,1.4-2.8s-0.4-2-1.4-2.8c0,0-0.4-0.3-0.5-0.4c-0.5-0.4-0.8-0.8-1-1.4
				c-0.2-0.7-0.2-1.2,0-2.1c0.1-0.6,0.2-0.7,0.2-1c0.1-0.9-0.1-1.6-0.7-2.4c-0.8-1.1-1.5-1.4-3-1.5c-1-0.1-1.5-0.2-2.1-0.6
				c-0.4-0.3-0.6-0.5-0.8-0.9c-0.2-0.2-0.2-0.4-0.5-1c-0.5-1.3-1.1-1.9-2.3-2.3c-1.1-0.4-1.9-0.2-2.9,0.3c-0.1,0.1-0.7,0.4-0.6,0.3
				c-0.7,0.4-1.1,0.6-1.8,0.6s-1.1-0.2-1.8-0.6c0.1,0.1-0.4-0.3-0.6-0.3c-1-0.6-1.8-0.7-2.9-0.3c-1.2,0.4-1.8,1-2.3,2.3
				c-0.3,0.6-0.3,0.8-0.5,1c-0.2,0.3-0.4,0.6-0.8,0.9c-0.6,0.4-1,0.5-2.1,0.6c-1.5,0.1-2.2,0.4-3,1.5c-0.6,0.8-0.7,1.5-0.7,2.4
				c0,0.3,0.1,0.4,0.2,1c0.2,0.9,0.2,1.4,0,2.1c-0.2,0.6-0.5,1-1,1.4c-0.1,0.1-0.5,0.4-0.5,0.4c-0.9,0.8-1.4,1.6-1.4,2.8
				s0.4,2,1.4,2.8c0,0,0.4,0.3,0.5,0.4c0.5,0.4,0.8,0.8,1,1.4c0.2,0.7,0.2,1.2,0,2.1c-0.1,0.6-0.2,0.7-0.2,1
				c-0.1,0.9,0.1,1.6,0.7,2.4c0.8,1.1,1.5,1.4,3,1.5c1,0.1,1.5,0.2,2.1,0.6c0.4,0.3,0.6,0.5,0.8,0.9c0.2,0.2,0.2,0.4,0.5,1
				c0.5,1.3,1.1,1.9,2.3,2.3c1.1,0.4,1.9,0.2,2.9-0.3c0.1-0.1,0.7-0.4,0.6-0.3c0.7-0.4,1.1-0.6,1.8-0.6S30.4,40.9,31.1,41.4z"/>
			<path id="XMLID_26_" class="st0" d="M38.1,50.3c0.3-0.4,0.2-1.1-0.2-1.4c-0.4-0.3-1.1-0.2-1.4,0.2l-4.2,5.6
				c-0.3,0.4-0.2,1.1,0.2,1.4c0.4,0.3,1.1,0.2,1.4-0.2L38.1,50.3z"/>
			<path id="XMLID_25_" class="st0" d="M44.1,51.4c0.6,0.1,1.1-0.4,1.1-0.9s-0.4-1.1-0.9-1.1l-6.9-0.7c-0.6-0.1-1.1,0.4-1.1,0.9
				c-0.1,0.6,0.4,1.1,0.9,1.1L44.1,51.4z"/>
			<path id="XMLID_24_" class="st0" d="M25.6,41l6.6,14.8c0.2,0.5,0.8,0.7,1.3,0.5c0.5-0.2,0.7-0.8,0.5-1.3l-6.6-14.7L25.6,41z"/>
			<path id="XMLID_23_" class="st0" d="M39,36.3c-0.2-0.5-0.8-0.7-1.3-0.5c-0.5,0.2-0.7,0.8-0.5,1.3l6.1,13.7
				c0.2,0.5,0.8,0.7,1.3,0.5c0.5-0.2,0.7-0.8,0.5-1.3L39,36.3z"/>
			<path id="XMLID_22_" class="st0" d="M22,49.1c-0.3-0.4-1-0.5-1.4-0.2c-0.4,0.3-0.5,1-0.2,1.4l4.2,5.6c0.3,0.4,1,0.5,1.4,0.2
				s0.5-1,0.2-1.4L22,49.1z"/>
			<path id="XMLID_21_" class="st0" d="M14.2,49.4c-0.6,0.1-1,0.5-0.9,1.1c0.1,0.6,0.5,1,1.1,0.9l6.9-0.7c0.6-0.1,1-0.5,0.9-1.1
				c-0.1-0.6-0.5-1-1.1-0.9L14.2,49.4z"/>
			<path id="XMLID_18_" class="st0" d="M24.5,54.9c-0.2,0.5,0,1.1,0.5,1.3c0.5,0.2,1.1,0,1.3-0.5l3.6-8.1c0.2-0.5,0-1.1-0.5-1.3
				c-0.5-0.2-1.1,0-1.3,0.5L24.5,54.9z M21.3,37.2c0.2-0.5,0-1.1-0.5-1.3s-1.1,0-1.3,0.5L13.4,50c-0.2,0.5,0,1.1,0.5,1.3
				c0.5,0.2,1.1,0,1.3-0.5L21.3,37.2z"/>
		</g>
	</g>
</g>
</svg>
