<?xml version="1.0" encoding="utf-8"?>
<!-- Generator: Adobe Illustrator 19.0.0, SVG Export Plug-In . SVG Version: 6.00 Build 0)  -->
<svg version="1.1" id="Layer_1" xmlns="http://www.w3.org/2000/svg" xmlns:xlink="http://www.w3.org/1999/xlink" x="0px" y="0px"
	 viewBox="0 0 64 64" style="enable-background:new 0 0 64 64;" xml:space="preserve">
<style type="text/css">
	.st0{fill:#FFFFFF;}
	.st1{fill:none;stroke:#FFFFFF;stroke-width:2.1446;stroke-linecap:round;stroke-linejoin:round;stroke-miterlimit:10;}
</style>
<g id="XMLID_80_">
	<g id="XMLID_83_">
		<g id="XMLID_84_" transform="translate(-559.000000, -627.000000)">
			<g id="XMLID_85_" transform="translate(564.000000, 632.000000)">
				<path id="XMLID_88_" class="st0" d="M47.6,10l2.3,1.5c1.3,0.8,1.7,2.6,0.9,3.9l-15,25.2l-6.9-4.5l15-25.2
					C44.6,9.6,46.3,9.2,47.6,10z M32.6,35.2l2.4,1.6l13.4-22.9c0,0-2.3-1.5-2.3-1.5C46.1,12.4,32.6,35.2,32.6,35.2z"/>
				<path id="XMLID_87_" class="st0" d="M35.6,40.9l-5.9,4.3c-1.8,1.3-2.9,0.6-2.4-1.7l1.5-7.2L35.6,40.9z"/>
				<path id="XMLID_86_" class="st0" d="M42.6,16.2l2.5,1.6l1.2,0.8l1.4-2.4l-1.2-0.8l-2.5-1.6L42.9,13l-1.4,2.4L42.6,16.2
					L42.6,16.2z"/>
			</g>
		</g>
	</g>
	<path id="XMLID_82_" class="st1" d="M17.4,41.3h-5.9c-0.6,0-1.1-0.5-1.1-1.1V17.9c0-0.6,0.5-1.1,1.1-1.1h22.3
		c0.6,0,1.1,0.5,1.1,1.4v5.7"/>
	<path id="XMLID_81_" class="st1" d="M33.8,47.4H19.2c-0.6,0-1.1-0.5-1.1-1.1V25c0-0.6,0.5-1.1,1.1-1.1h21.4c0.6,0,1.1,0.5,1.1,1.3
		v6.1"/>
</g>
</svg>
